<?xml version="1.0" encoding="utf-8"?>
<svg version="1.1"
	viewBox="0 0 16 16"
	fill="currentColor"
	xmlns="http://www.w3.org/2000/svg"
	xmlns:rdf="http://www.w3.org/1999/02/22-rdf-syntax-ns#"
	xmlns:cc="http://creativecommons.org/ns#"
	xmlns:dc="http://purl.org/dc/elements/1.1/"
>
	<metadata>
		<rdf:RDF>
			<cc:Work>
				<cc:license rdf:resource="https://opensource.org/licenses/mit-license" />
				<dc:creator>GitLab B.V.</dc:creator>
			</cc:Work>
		</rdf:RDF>
	</metadata>
	<path d="M 3.1777344 0.90820312 C 3.0601123 0.90820312 2.9437692 0.97690616 2.8984375 1.1113281 L 1.1933594 6.3652344 L 0.33007812 9.015625 C 0.25191042 9.2563304 0.33664988 9.5237863 0.54296875 9.6738281 L 8 15.091797 L 15.457031 9.6738281 C 15.663398 9.5237863 15.748092 9.2563304 15.669922 9.015625 L 14.808594 6.3652344 L 13.101562 1.1113281 C 13.010899 0.8424842 12.630489 0.8424842 12.542969 1.1113281 L 10.835938 6.3652344 L 5.1660156 6.3652344 L 3.4570312 1.1113281 C 3.4132727 0.97690616 3.2953564 0.90820312 3.1777344 0.90820312 z" />
</svg>
